User-Agent: PostmanRuntime/7.30.1
Accept: */*
Cache-Control: no-cache
Postman-Token: 5c0148a7-dc6e-4df6-8cf4-ae34c8cf41ad
Host: localhost:8080
Accept-Encoding: gzip, deflate, br
Connection: keep-alive
Content-Type: multipart/form-data; boundary=--------------------------242679330962844079041249
Content-Length: 214

----------------------------242679330962844079041249
Content-Disposition: form-data; name=""; filename="test.txt"
Content-Type: text/plain

from Postman
----------------------------242679330962844079041249--
